{
  "name": "mathiusd.gitlab.io",
  "application": {
    "head": "assets/head.html",
    "title": "MathiusD Gitlab Pages"
  },
  "external": {
    "stylesheets": [
      "assets/sass/generated/customized_bulma.css"
    ]
  },
  "source-directories": [
    "src"
  ],
  "test-directories": [
    "tests"
  ],
  "formatter": {
    "indent-size": 2
  }
}